{
  "project_info": {
    "project_number": "475778525218",
    "firebase_url": "https://theville-180005.firebaseio.com",
    "project_id": "theville-180005",
    "storage_bucket": "theville-180005.appspot.com"
  },
  "client": [
    {
      "client_info": {
        "mobilesdk_app_id": "1:475778525218:android:baacc31bd6b45eb8",
        "android_client_info": {
          "package_name": "dev.theVille.com"
        }
      },
      "oauth_client": [
        {
          "client_id": "475778525218-clafq3atuttvk877eb4dpf8t2ci3b8b4.apps.googleusercontent.com",
          "client_type": 3
        }
      ],
      "api_key": [
        {
          "current_key": "AIzaSyDOHHRpKV3U7PMvV5RnXPDaiEcOXVqKf3U"
        }
      ],
      "services": {
        "analytics_service": {
          "status": 1
        },
        "appinvite_service": {
          "status": 1,
          "other_platform_oauth_client": []
        },
        "ads_service": {
          "status": 2
        }
      }
    }
  ],
  "configuration_version": "1"
}