<?xml version="1.0" encoding="utf-8"?>
<!-- Generator: Adobe Illustrator 21.1.0, SVG Export Plug-In . SVG Version: 6.00 Build 0)  -->
<svg version="1.1" id="Layer_1" xmlns="http://www.w3.org/2000/svg" xmlns:xlink="http://www.w3.org/1999/xlink" x="0px" y="0px"
	 viewBox="0 0 30 17" style="enable-background:new 0 0 30 17;" xml:space="preserve">
<style type="text/css">
	.st0{fill:#808080;}
</style>
<path class="st0" d="M29.7,1.6l-1.4-1.3c-0.4-0.4-1-0.4-1.4,0L15,12L3,0.3c-0.4-0.4-1-0.4-1.4,0L0.3,1.6c0,0,0,0,0,0
	c-0.4,0.4-0.4,1,0,1.3l14,13.8c0.2,0.2,0.4,0.3,0.7,0.3c0.3,0,0.5-0.1,0.7-0.3l14-13.8c0,0,0,0,0,0C30.1,2.6,30.1,2,29.7,1.6z"/>
</svg>
